name,company_name,phone,email,alternate_no,lead_type,lead_source,requirement
 Chandel,,8770134947,param.chandel@gmail.com,,,,
Vikas Prajapati,,9486766702,vikas.prajapati-phyedu@msubaroda.ac.in,,,,
Ram Saran,,param.chandel@gmail.com,,,,,
